watchdog/watchdog.vcd
$version Generated by VerilatedVcd $end
$timescale 1ps $end
 $scope module $rootio $end
 $upscope $end
 $scope module tb_watchdog $end
  $var real 64 4 T_CLK_HI $end
  $var real 64 4 T_CLK_LO $end
  $var real 64 6 T_CLK $end
  $var real 64 8 T_APPL_DEL $end
  $var real 64 4 T_ACQ_DEL $end
  $var wire 32 : NUM_VECTOR [31:0] $end
  $var wire 168 ; STIMULI_FILE [167:0] $end
  $var wire 248 A RESPONSE_FILE [247:0] $end
  $var wire 1 # eoc $end
  $var wire 1 ) clk $end
  $var wire 1 * rst_n $end
  $var wire 1 + kick $end
  $var wire 32 $ timeout [31:0] $end
  $var wire 1 , syst_rst $end
  $var wire 32 % load_stimuli__Vstatic__file [31:0] $end
  $var wire 32 & load_stimuli__Vstatic__i [31:0] $end
  $var wire 64 ' load_stimuli__Vstatic__temp [63:0] $end
  $var wire 32 - load_exp_response__Vstatic__file [31:0] $end
  $var wire 32 . load_exp_response__Vstatic__i [31:0] $end
  $var wire 33 / load_exp_response__Vstatic__temp [32:0] $end
  $scope module i_dut $end
   $var wire 1 ) clk_i $end
   $var wire 1 * rst_ni $end
   $var wire 1 + kick_i $end
   $var wire 32 $ timeout_i [31:0] $end
   $var wire 1 , sys_rst_o $end
   $var wire 32 1 counter_q [31:0] $end
   $var wire 32 2 counter_d [31:0] $end
   $var wire 1 I timeout $end
  $upscope $end
  $scope module stim_apply $end
   $var wire 32 3 cycle_count [31:0] $end
   $var wire 1 J sys_rst_triggered $end
  $upscope $end
 $upscope $end
$enddefinitions $end


#0
0#
b00000000000000000000000000000110 $
b10000000000000000000000000101100 %
b00000000000000000000000000100000 &
b0000000000000000000000000000001100000000000000000000000000000010 '
1)
0*
0+
0,
b00000000000000000000000000000000 -
b00000000000000000000000000000000 .
b000000000000000000000000000000000 /
b00000000000000000000000000000000 1
b00000000000000000000000000000001 2
b00000000000000000000000000000000 3
r5 4
r10 6
r1 8
b00000000000000000000000000100000 :
b001011100010111101110011011101000110100101101101011101010110110001101001001011110111001101110100011010010110110101110101011011000110100100101110011101000111100001110100 ;
b00101110001011110111001101110100011010010110110101110101011011000110100100101111011001010111100001110000011001010110001101110100011001010110010001011111011100100110010101110011011100000110111101101110011100110110010100101110011101000111100001110100 A
0I
0J
#5000
0)
1*
#10000
1)
b00000000000000000000000000000001 1
b00000000000000000000000000000010 2
b00000000000000000000000000000001 3
#15000
0)
#20000
1)
b00000000000000000000000000000010 1
b00000000000000000000000000000011 2
b00000000000000000000000000000010 3
#25000
0)
#30000
1)
b00000000000000000000000000000011 1
b00000000000000000000000000000100 2
b00000000000000000000000000000011 3
#35000
0)
#40000
1)
b00000000000000000000000000000100 1
b00000000000000000000000000000101 2
b00000000000000000000000000000100 3
#45000
0)
#50000
1)
b00000000000000000000000000000101 1
b00000000000000000000000000000110 2
b00000000000000000000000000000101 3
#55000
0)
#60000
1)
1+
b00000000000000000000000000000000 1
b00000000000000000000000000000000 2
b00000000000000000000000000000110 3
#65000
0)
#70000
1)
0+
b00000000000000000000000000000001 1
b00000000000000000000000000000010 2
b00000000000000000000000000000111 3
#75000
0)
#80000
1)
b00000000000000000000000000000010 1
b00000000000000000000000000000011 2
#85000
0)
#90000
b00000000000000000000000000000000 $
1)
0*
1,
b00000000000000000000000000000000 1
b00000000000000000000000000000001 2
b00000000000000000000000000000000 3
#95000
0)
1*
#100000
1)
b00000000000000000000000000000001 1
b00000000000000000000000000000010 2
#105000
0)
#110000
b00000000000000000000000000000111 $
1)
0*
0,
b00000000000000000000000000000000 1
b00000000000000000000000000000001 2
#115000
0)
1*
#120000
1)
b00000000000000000000000000000001 1
b00000000000000000000000000000010 2
b00000000000000000000000000000001 3
#125000
0)
#130000
1)
b00000000000000000000000000000010 1
b00000000000000000000000000000011 2
b00000000000000000000000000000010 3
#135000
0)
#140000
1)
b00000000000000000000000000000011 1
b00000000000000000000000000000100 2
b00000000000000000000000000000011 3
#145000
0)
#150000
1)
b00000000000000000000000000000100 1
b00000000000000000000000000000101 2
b00000000000000000000000000000100 3
#155000
0)
#160000
1)
b00000000000000000000000000000101 1
b00000000000000000000000000000110 2
b00000000000000000000000000000101 3
#165000
0)
#170000
1)
1+
b00000000000000000000000000000000 1
b00000000000000000000000000000000 2
b00000000000000000000000000000110 3
#175000
0)
#180000
1)
0+
b00000000000000000000000000000001 1
b00000000000000000000000000000010 2
b00000000000000000000000000000111 3
#185000
0)
#190000
1)
b00000000000000000000000000000010 1
b00000000000000000000000000000011 2
#195000
0)
#200000
b00000000000000000000000000000100 $
1)
0*
b00000000000000000000000000000000 1
b00000000000000000000000000000001 2
b00000000000000000000000000000000 3
#205000
0)
1*
#210000
1)
b00000000000000000000000000000001 1
b00000000000000000000000000000010 2
b00000000000000000000000000000001 3
#215000
0)
#220000
1)
b00000000000000000000000000000010 1
b00000000000000000000000000000011 2
b00000000000000000000000000000010 3
#225000
0)
#230000
1)
b00000000000000000000000000000011 1
b00000000000000000000000000000100 2
b00000000000000000000000000000011 3
#235000
0)
#240000
1)
1,
b00000000000000000000000000000100 1
b00000000000000000000000000000101 2
b00000000000000000000000000000100 3
#245000
0)
#250000
1)
b00000000000000000000000000000101 1
b00000000000000000000000000000110 2
#255000
0)
#260000
b00000000000000000000000000000101 $
1)
0*
0,
b00000000000000000000000000000000 1
b00000000000000000000000000000001 2
b00000000000000000000000000000000 3
#265000
0)
1*
#270000
1)
b00000000000000000000000000000001 1
b00000000000000000000000000000010 2
b00000000000000000000000000000001 3
#275000
0)
#280000
1)
b00000000000000000000000000000010 1
b00000000000000000000000000000011 2
b00000000000000000000000000000010 3
#285000
0)
#290000
1)
1+
b00000000000000000000000000000000 1
b00000000000000000000000000000000 2
b00000000000000000000000000000011 3
#295000
0)
#300000
1)
0+
b00000000000000000000000000000001 1
b00000000000000000000000000000010 2
b00000000000000000000000000000100 3
#305000
0)
#310000
1)
b00000000000000000000000000000010 1
b00000000000000000000000000000011 2
#315000
0)
#320000
b00000000000000000000000000000010 $
1)
0*
b00000000000000000000000000000000 1
b00000000000000000000000000000001 2
b00000000000000000000000000000000 3
#325000
0)
1*
#330000
1)
b00000000000000000000000000000001 1
b00000000000000000000000000000010 2
b00000000000000000000000000000001 3
#335000
0)
#340000
1)
1,
b00000000000000000000000000000010 1
b00000000000000000000000000000011 2
b00000000000000000000000000000010 3
#345000
0)
#350000
1)
b00000000000000000000000000000011 1
b00000000000000000000000000000100 2
#355000
0)
#360000
1)
0*
0,
b00000000000000000000000000000000 1
b00000000000000000000000000000001 2
b00000000000000000000000000000000 3
#365000
0)
1*
#370000
1)
1+
b00000000000000000000000000000000 2
b00000000000000000000000000000001 3
#375000
0)
#380000
1)
0+
b00000000000000000000000000000001 1
b00000000000000000000000000000010 2
b00000000000000000000000000000010 3
#385000
0)
#390000
1)
1,
b00000000000000000000000000000010 1
b00000000000000000000000000000011 2
#395000
0)
#400000
b00000000000000000000000000000100 $
1)
0*
0,
b00000000000000000000000000000000 1
b00000000000000000000000000000001 2
b00000000000000000000000000000000 3
#405000
0)
1*
#410000
1)
b00000000000000000000000000000001 1
b00000000000000000000000000000010 2
b00000000000000000000000000000001 3
#415000
0)
#420000
1)
1+
b00000000000000000000000000000000 1
b00000000000000000000000000000000 2
b00000000000000000000000000000010 3
#425000
0)
#430000
1)
0+
b00000000000000000000000000000001 1
b00000000000000000000000000000010 2
b00000000000000000000000000000011 3
#435000
0)
#440000
1)
b00000000000000000000000000000010 1
b00000000000000000000000000000011 2
#445000
0)
#450000
1)
0*
b00000000000000000000000000000000 1
b00000000000000000000000000000001 2
b00000000000000000000000000000000 3
#455000
0)
1*
#460000
1)
1+
b00000000000000000000000000000000 2
b00000000000000000000000000000001 3
#465000
0)
#470000
1)
0+
b00000000000000000000000000000001 1
b00000000000000000000000000000010 2
b00000000000000000000000000000010 3
#475000
0)
#480000
1)
b00000000000000000000000000000010 1
b00000000000000000000000000000011 2
#485000
0)
#490000
b00000000000000000000000000000001 $
1)
0*
b00000000000000000000000000000000 1
b00000000000000000000000000000001 2
b00000000000000000000000000000000 3
#495000
0)
1*
#500000
1)
1,
b00000000000000000000000000000001 1
b00000000000000000000000000000010 2
b00000000000000000000000000000001 3
#505000
0)
#510000
1)
b00000000000000000000000000000010 1
b00000000000000000000000000000011 2
#515000
0)
#520000
b00000000000000000000000000000111 $
1)
0*
0,
b00000000000000000000000000000000 1
b00000000000000000000000000000001 2
b00000000000000000000000000000000 3
#525000
0)
1*
#530000
1)
1+
b00000000000000000000000000000000 2
b00000000000000000000000000000001 3
#535000
0)
#540000
1)
0+
b00000000000000000000000000000001 1
b00000000000000000000000000000010 2
b00000000000000000000000000000010 3
#545000
0)
#550000
1)
b00000000000000000000000000000010 1
b00000000000000000000000000000011 2
#555000
0)
#560000
b00000000000000000000000000000101 $
1)
0*
b00000000000000000000000000000000 1
b00000000000000000000000000000001 2
b00000000000000000000000000000000 3
#565000
0)
1*
#570000
1)
b00000000000000000000000000000001 1
b00000000000000000000000000000010 2
b00000000000000000000000000000001 3
#575000
0)
#580000
1)
b00000000000000000000000000000010 1
b00000000000000000000000000000011 2
b00000000000000000000000000000010 3
#585000
0)
#590000
1)
b00000000000000000000000000000011 1
b00000000000000000000000000000100 2
b00000000000000000000000000000011 3
#595000
0)
#600000
1)
b00000000000000000000000000000100 1
b00000000000000000000000000000101 2
b00000000000000000000000000000100 3
#605000
0)
#610000
1)
1,
b00000000000000000000000000000101 1
b00000000000000000000000000000110 2
b00000000000000000000000000000101 3
#615000
0)
#620000
1)
b00000000000000000000000000000110 1
b00000000000000000000000000000111 2
#625000
0)
#630000
1)
0*
0,
b00000000000000000000000000000000 1
b00000000000000000000000000000001 2
b00000000000000000000000000000000 3
#635000
0)
1*
#640000
1)
b00000000000000000000000000000001 1
b00000000000000000000000000000010 2
b00000000000000000000000000000001 3
#645000
0)
#650000
1)
b00000000000000000000000000000010 1
b00000000000000000000000000000011 2
b00000000000000000000000000000010 3
#655000
0)
#660000
1)
1+
b00000000000000000000000000000000 1
b00000000000000000000000000000000 2
b00000000000000000000000000000011 3
#665000
0)
#670000
1)
0+
b00000000000000000000000000000001 1
b00000000000000000000000000000010 2
b00000000000000000000000000000100 3
#675000
0)
#680000
1)
b00000000000000000000000000000010 1
b00000000000000000000000000000011 2
#685000
0)
#690000
b00000000000000000000000000000111 $
1)
0*
b00000000000000000000000000000000 1
b00000000000000000000000000000001 2
b00000000000000000000000000000000 3
#695000
0)
1*
#700000
1)
b00000000000000000000000000000001 1
b00000000000000000000000000000010 2
b00000000000000000000000000000001 3
#705000
0)
#710000
1)
b00000000000000000000000000000010 1
b00000000000000000000000000000011 2
b00000000000000000000000000000010 3
#715000
0)
#720000
1)
b00000000000000000000000000000011 1
b00000000000000000000000000000100 2
b00000000000000000000000000000011 3
#725000
0)
#730000
1)
b00000000000000000000000000000100 1
b00000000000000000000000000000101 2
b00000000000000000000000000000100 3
#735000
0)
#740000
1)
b00000000000000000000000000000101 1
b00000000000000000000000000000110 2
b00000000000000000000000000000101 3
#745000
0)
#750000
1)
b00000000000000000000000000000110 1
b00000000000000000000000000000111 2
b00000000000000000000000000000110 3
#755000
0)
#760000
1)
1+
b00000000000000000000000000000000 1
b00000000000000000000000000000000 2
b00000000000000000000000000000111 3
#765000
0)
#770000
1)
0+
b00000000000000000000000000000001 1
b00000000000000000000000000000010 2
b00000000000000000000000000001000 3
#775000
0)
#780000
1)
b00000000000000000000000000000010 1
b00000000000000000000000000000011 2
#785000
0)
#790000
b00000000000000000000000000000100 $
1)
0*
b00000000000000000000000000000000 1
b00000000000000000000000000000001 2
b00000000000000000000000000000000 3
#795000
0)
1*
1+
b00000000000000000000000000000000 2
#800000
1)
0+
b00000000000000000000000000000001 1
b00000000000000000000000000000010 2
b00000000000000000000000000000001 3
#805000
0)
#810000
1)
b00000000000000000000000000000010 1
b00000000000000000000000000000011 2
#815000
0)
#820000
b00000000000000000000000000000000 $
1)
0*
1,
b00000000000000000000000000000000 1
b00000000000000000000000000000001 2
b00000000000000000000000000000000 3
#825000
0)
1*
#830000
1)
b00000000000000000000000000000001 1
b00000000000000000000000000000010 2
#835000
0)
#840000
b00000000000000000000000000000110 $
1)
0*
0,
b00000000000000000000000000000000 1
b00000000000000000000000000000001 2
#845000
0)
1*
1+
b00000000000000000000000000000000 2
#850000
1)
0+
b00000000000000000000000000000001 1
b00000000000000000000000000000010 2
b00000000000000000000000000000001 3
#855000
0)
#860000
1)
b00000000000000000000000000000010 1
b00000000000000000000000000000011 2
#865000
0)
#870000
b00000000000000000000000000000111 $
1)
0*
b00000000000000000000000000000000 1
b00000000000000000000000000000001 2
b00000000000000000000000000000000 3
#875000
0)
1*
#880000
1)
b00000000000000000000000000000001 1
b00000000000000000000000000000010 2
b00000000000000000000000000000001 3
#885000
0)
#890000
1)
b00000000000000000000000000000010 1
b00000000000000000000000000000011 2
b00000000000000000000000000000010 3
#895000
0)
#900000
1)
b00000000000000000000000000000011 1
b00000000000000000000000000000100 2
b00000000000000000000000000000011 3
#905000
0)
#910000
1)
b00000000000000000000000000000100 1
b00000000000000000000000000000101 2
b00000000000000000000000000000100 3
#915000
0)
#920000
1)
1+
b00000000000000000000000000000000 1
b00000000000000000000000000000000 2
b00000000000000000000000000000101 3
#925000
0)
#930000
1)
0+
b00000000000000000000000000000001 1
b00000000000000000000000000000010 2
b00000000000000000000000000000110 3
#935000
0)
#940000
1)
b00000000000000000000000000000010 1
b00000000000000000000000000000011 2
#945000
0)
#950000
b00000000000000000000000000000011 $
1)
0*
b00000000000000000000000000000000 1
b00000000000000000000000000000001 2
b00000000000000000000000000000000 3
#955000
0)
1*
#960000
1)
b00000000000000000000000000000001 1
b00000000000000000000000000000010 2
b00000000000000000000000000000001 3
#965000
0)
#970000
1)
b00000000000000000000000000000010 1
b00000000000000000000000000000011 2
b00000000000000000000000000000010 3
#975000
0)
#980000
1)
1,
b00000000000000000000000000000011 1
b00000000000000000000000000000100 2
b00000000000000000000000000000011 3
#985000
0)
#990000
1)
b00000000000000000000000000000100 1
b00000000000000000000000000000101 2
#995000
0)
#1000000
b00000000000000000000000000000001 $
1)
0*
0,
b00000000000000000000000000000000 1
b00000000000000000000000000000001 2
b00000000000000000000000000000000 3
#1005000
0)
1*
#1010000
1)
1,
b00000000000000000000000000000001 1
b00000000000000000000000000000010 2
b00000000000000000000000000000001 3
#1015000
0)
#1020000
1)
b00000000000000000000000000000010 1
b00000000000000000000000000000011 2
#1025000
0)
#1030000
b00000000000000000000000000000011 $
1)
0*
0,
b00000000000000000000000000000000 1
b00000000000000000000000000000001 2
b00000000000000000000000000000000 3
#1035000
0)
1*
#1040000
1)
b00000000000000000000000000000001 1
b00000000000000000000000000000010 2
b00000000000000000000000000000001 3
#1045000
0)
#1050000
1)
b00000000000000000000000000000010 1
b00000000000000000000000000000011 2
b00000000000000000000000000000010 3
#1055000
0)
#1060000
1)
1+
b00000000000000000000000000000000 1
b00000000000000000000000000000000 2
b00000000000000000000000000000011 3
#1065000
0)
#1070000
1)
0+
b00000000000000000000000000000001 1
b00000000000000000000000000000010 2
b00000000000000000000000000000100 3
#1075000
0)
#1080000
1)
b00000000000000000000000000000010 1
b00000000000000000000000000000011 2
#1085000
0)
#1090000
b00000000000000000000000000000010 $
1)
0*
b00000000000000000000000000000000 1
b00000000000000000000000000000001 2
b00000000000000000000000000000000 3
#1095000
0)
1*
#1100000
1)
b00000000000000000000000000000001 1
b00000000000000000000000000000010 2
b00000000000000000000000000000001 3
#1105000
0)
#1110000
1)
1,
b00000000000000000000000000000010 1
b00000000000000000000000000000011 2
b00000000000000000000000000000010 3
#1115000
0)
#1120000
1)
b00000000000000000000000000000011 1
b00000000000000000000000000000100 2
#1125000
0)
#1130000
b00000000000000000000000000000001 $
1)
0*
0,
b00000000000000000000000000000000 1
b00000000000000000000000000000001 2
b00000000000000000000000000000000 3
#1135000
0)
1*
#1140000
1)
1+
b00000000000000000000000000000000 2
b00000000000000000000000000000001 3
#1145000
0)
#1150000
1)
0+
1,
b00000000000000000000000000000001 1
b00000000000000000000000000000010 2
b00000000000000000000000000000010 3
#1155000
0)
#1160000
1)
b00000000000000000000000000000010 1
b00000000000000000000000000000011 2
#1165000
0)
#1170000
b00000000000000000000000000000101 $
1)
0*
0,
b00000000000000000000000000000000 1
b00000000000000000000000000000001 2
b00000000000000000000000000000000 3
#1175000
0)
1*
#1180000
1)
b00000000000000000000000000000001 1
b00000000000000000000000000000010 2
b00000000000000000000000000000001 3
#1185000
0)
#1190000
1)
b00000000000000000000000000000010 1
b00000000000000000000000000000011 2
b00000000000000000000000000000010 3
#1195000
0)
#1200000
1)
b00000000000000000000000000000011 1
b00000000000000000000000000000100 2
b00000000000000000000000000000011 3
#1205000
0)
#1210000
1)
b00000000000000000000000000000100 1
b00000000000000000000000000000101 2
b00000000000000000000000000000100 3
#1215000
0)
#1220000
1)
1,
b00000000000000000000000000000101 1
b00000000000000000000000000000110 2
b00000000000000000000000000000101 3
#1225000
0)
#1230000
1)
b00000000000000000000000000000110 1
b00000000000000000000000000000111 2
#1235000
0)
#1240000
b00000000000000000000000000000001 $
1)
0*
0,
b00000000000000000000000000000000 1
b00000000000000000000000000000001 2
b00000000000000000000000000000000 3
#1245000
0)
1*
#1250000
1)
1,
b00000000000000000000000000000001 1
b00000000000000000000000000000010 2
b00000000000000000000000000000001 3
#1255000
0)
#1260000
1)
b00000000000000000000000000000010 1
b00000000000000000000000000000011 2
#1265000
0)
#1270000
b00000000000000000000000000000100 $
1)
0*
0,
b00000000000000000000000000000000 1
b00000000000000000000000000000001 2
b00000000000000000000000000000000 3
#1275000
0)
1*
#1280000
1)
1+
b00000000000000000000000000000000 2
b00000000000000000000000000000001 3
#1285000
0)
#1290000
1)
0+
b00000000000000000000000000000001 1
b00000000000000000000000000000010 2
b00000000000000000000000000000010 3
#1295000
0)
#1300000
1)
b00000000000000000000000000000010 1
b00000000000000000000000000000011 2
#1305000
0)
#1310000
b00000000000000000000000000000101 $
1)
0*
b00000000000000000000000000000000 1
b00000000000000000000000000000001 2
b00000000000000000000000000000000 3
#1315000
0)
1*
#1320000
1)
b00000000000000000000000000000001 1
b00000000000000000000000000000010 2
b00000000000000000000000000000001 3
#1325000
0)
#1330000
1)
b00000000000000000000000000000010 1
b00000000000000000000000000000011 2
b00000000000000000000000000000010 3
#1335000
0)
#1340000
1)
1+
b00000000000000000000000000000000 1
b00000000000000000000000000000000 2
b00000000000000000000000000000011 3
#1345000
0)
#1350000
1)
0+
b00000000000000000000000000000001 1
b00000000000000000000000000000010 2
b00000000000000000000000000000100 3
#1355000
0)
#1360000
1)
b00000000000000000000000000000010 1
b00000000000000000000000000000011 2
#1365000
0)
#1370000
b00000000000000000000000000000100 $
1)
0*
b00000000000000000000000000000000 1
b00000000000000000000000000000001 2
b00000000000000000000000000000000 3
#1375000
0)
1*
#1380000
1)
b00000000000000000000000000000001 1
b00000000000000000000000000000010 2
b00000000000000000000000000000001 3
#1385000
0)
#1390000
1)
b00000000000000000000000000000010 1
b00000000000000000000000000000011 2
b00000000000000000000000000000010 3
#1395000
0)
#1400000
1)
b00000000000000000000000000000011 1
b00000000000000000000000000000100 2
b00000000000000000000000000000011 3
#1405000
0)
#1410000
1)
1,
b00000000000000000000000000000100 1
b00000000000000000000000000000101 2
b00000000000000000000000000000100 3
#1415000
0)
#1420000
1)
b00000000000000000000000000000101 1
b00000000000000000000000000000110 2
#1425000
0)
#1430000
b00000000000000000000000000000001 $
1)
0*
0,
b00000000000000000000000000000000 1
b00000000000000000000000000000001 2
b00000000000000000000000000000000 3
#1435000
0)
1*
#1440000
1)
1,
b00000000000000000000000000000001 1
b00000000000000000000000000000010 2
b00000000000000000000000000000001 3
#1445000
0)
#1450000
1)
b00000000000000000000000000000010 1
b00000000000000000000000000000011 2
#1455000
0)
#1460000
b00000000000000000000000000000101 $
1)
0*
0,
b00000000000000000000000000000000 1
b00000000000000000000000000000001 2
b00000000000000000000000000000000 3
#1465000
0)
1*
#1470000
1)
b00000000000000000000000000000001 1
b00000000000000000000000000000010 2
b00000000000000000000000000000001 3
#1475000
0)
#1480000
1)
b00000000000000000000000000000010 1
b00000000000000000000000000000011 2
b00000000000000000000000000000010 3
#1485000
0)
#1490000
1)
1+
b00000000000000000000000000000000 1
b00000000000000000000000000000000 2
b00000000000000000000000000000011 3
#1495000
0)
#1500000
1)
0+
b00000000000000000000000000000001 1
b00000000000000000000000000000010 2
b00000000000000000000000000000100 3
#1505000
0)
#1510000
1)
b00000000000000000000000000000010 1
b00000000000000000000000000000011 2
#1515000
0)
#1520000
b00000000000000000000000000000100 $
1)
0*
b00000000000000000000000000000000 1
b00000000000000000000000000000001 2
b00000000000000000000000000000000 3
#1525000
0)
1*
#1530000
1)
b00000000000000000000000000000001 1
b00000000000000000000000000000010 2
b00000000000000000000000000000001 3
#1535000
0)
#1540000
1)
1+
b00000000000000000000000000000000 1
b00000000000000000000000000000000 2
b00000000000000000000000000000010 3
#1545000
0)
#1550000
1)
0+
b00000000000000000000000000000001 1
b00000000000000000000000000000010 2
b00000000000000000000000000000011 3
#1555000
0)
#1560000
1)
b00000000000000000000000000000010 1
b00000000000000000000000000000011 2
#1565000
0)
#1570000
b00000000000000000000000000000011 $
1)
0*
b00000000000000000000000000000000 1
b00000000000000000000000000000001 2
b00000000000000000000000000000000 3
#1575000
0)
1*
#1580000
1)
b00000000000000000000000000000001 1
b00000000000000000000000000000010 2
b00000000000000000000000000000001 3
#1585000
0)
#1590000
1)
1+
b00000000000000000000000000000000 1
b00000000000000000000000000000000 2
b00000000000000000000000000000010 3
#1595000
0)
#1600000
1)
0+
b00000000000000000000000000000001 1
b00000000000000000000000000000010 2
b00000000000000000000000000000011 3
#1605000
0)
#1610000
1)
b00000000000000000000000000000010 1
b00000000000000000000000000000011 2
#1615000
0)
#1620000
1#
1)
1,
b10000000000000000000000000101100 -
b00000000000000000000000000100000 .
b000000000000000000000000000000010 /
b00000000000000000000000000000011 1
b00000000000000000000000000000100 2
